{
    "mongoURI": "mongodb+srv://mfduran:12defebrero@mytinerary-aqkbo.mongodb.net/Mytinerary?retryWrites=true&w=majority",
    "jwtSecret": "sl_myjwtSecret",
    "client_id": "460370230826-q96e0vljep1anr9mpi64etnsok59390f.apps.googleusercontent.com",
    "client_secret": "AcGQRbNBGihiK2wGF58QRECu"
}